﻿22308 09:09:23 ERROR Could not show version info for assembly: d:\ex2\projects\taylormorrison\tmweb\tm.wip\src\tm.web.ui\bin\msidcrl40.dll
Exception: System.BadImageFormatException
Message: Could not load file or assembly 'file:///d:\ex2\projects\taylormorrison\tmweb\tm.wip\src\tm.web.ui\bin\msidcrl40.dll' or one of its dependencies. The module was expected to contain an assembly manifest.
Source: mscorlib
   at System.Reflection.RuntimeAssembly._nLoad(AssemblyName fileName, String codeBase, Evidence assemblySecurity, RuntimeAssembly locationHint, StackCrawlMark& stackMark, IntPtr pPrivHostBinder, Boolean throwOnFileNotFound, Boolean forIntrospection, Boolean suppressSecurityChecks)
   at System.Reflection.RuntimeAssembly.InternalLoadAssemblyName(AssemblyName assemblyRef, Evidence assemblySecurity, RuntimeAssembly reqAssembly, StackCrawlMark& stackMark, IntPtr pPrivHostBinder, Boolean throwOnFileNotFound, Boolean forIntrospection, Boolean suppressSecurityChecks)
   at System.Reflection.RuntimeAssembly.InternalLoadFrom(String assemblyFile, Evidence securityEvidence, Byte[] hashValue, AssemblyHashAlgorithm hashAlgorithm, Boolean forIntrospection, Boolean suppressSecurityChecks, StackCrawlMark& stackMark)
   at System.Reflection.Assembly.LoadFrom(String assemblyFile)
   at Sitecore.Pipelines.Loader.ShowVersion.ShowVersionData(String filename)

8980 09:11:45 ERROR Rendering TextFrame: {10BE9292-9A26-433C-BCD4-4C84E72367BA}
Exception: System.NullReferenceException
Message: Object reference not set to an instance of an object.
Source: TM.Web.Custom
   at TM.Web.Custom.Modules.PXM.Rendering.SalesTeamRendererEmailByIndex.GetContent(PrintContext printContext, XElement textFrameNode) in d:\EX2\Projects\TaylorMorrison\TMWeb\TM.WIP\src\TM.Web.Custom\Modules\PXM\Rendering\SalesTeamRendererEmailByIndex.cs:line 43

8980 09:11:45 ERROR Rendering TextFrame: {C93C9ABA-5B62-4059-B973-8ECD4175F620}
Exception: System.NullReferenceException
Message: Object reference not set to an instance of an object.
Source: TM.Web.Custom
   at TM.Web.Custom.Modules.PXM.Rendering.SalesTeamRendererPhoneByIndex.GetContent(PrintContext printContext, XElement textFrameNode) in d:\EX2\Projects\TaylorMorrison\TMWeb\TM.WIP\src\TM.Web.Custom\Modules\PXM\Rendering\SalesTeamRendererPhoneByIndex.cs:line 47

8980 09:11:45 ERROR Rendering TextFrame: {1345DF28-CF88-42EA-9A23-4FC3C7C91A2E}
Exception: System.NullReferenceException
Message: Object reference not set to an instance of an object.
Source: TM.Web.Custom
   at TM.Web.Custom.Modules.PXM.Rendering.SalesTeamRendererNameByIndex.GetContent(PrintContext printContext, XElement textFrameNode) in d:\EX2\Projects\TaylorMorrison\TMWeb\TM.WIP\src\TM.Web.Custom\Modules\PXM\Rendering\SalesTeamRendererNameByIndex.cs:line 45

14572 09:29:55 ERROR Rendering TextFrame: {B5132335-A411-4162-9CA1-E66BC8298DF7}
Exception: System.NullReferenceException
Message: Object reference not set to an instance of an object.
Source: TM.Web.Custom
   at TM.Web.Custom.Modules.PXM.Rendering.SalesTeamRendererNameByIndex.GetContent(PrintContext printContext, XElement textFrameNode) in d:\EX2\Projects\TaylorMorrison\TMWeb\TM.WIP\src\TM.Web.Custom\Modules\PXM\Rendering\SalesTeamRendererNameByIndex.cs:line 45

14572 09:29:55 ERROR Rendering TextFrame: {23E844BE-3CB0-48FA-80CF-7A006F7C3365}
Exception: System.NullReferenceException
Message: Object reference not set to an instance of an object.
Source: TM.Web.Custom
   at TM.Web.Custom.Modules.PXM.Rendering.SalesTeamRendererPhoneByIndex.GetContent(PrintContext printContext, XElement textFrameNode) in d:\EX2\Projects\TaylorMorrison\TMWeb\TM.WIP\src\TM.Web.Custom\Modules\PXM\Rendering\SalesTeamRendererPhoneByIndex.cs:line 47

14572 09:29:55 ERROR Rendering TextFrame: {260316AB-F414-4448-BE5E-BFA78C49C46F}
Exception: System.NullReferenceException
Message: Object reference not set to an instance of an object.
Source: TM.Web.Custom
   at TM.Web.Custom.Modules.PXM.Rendering.SalesTeamRendererEmailByIndex.GetContent(PrintContext printContext, XElement textFrameNode) in d:\EX2\Projects\TaylorMorrison\TMWeb\TM.WIP\src\TM.Web.Custom\Modules\PXM\Rendering\SalesTeamRendererEmailByIndex.cs:line 43

5480 09:31:02 ERROR Could not instantiate "Sitecore.Media.Management.Commands.SelectAll, Sitecore.Media.Management" command object.
5480 09:31:02 ERROR Could not instantiate "Sitecore.Media.Management.Commands.DeselectAll, Sitecore.Media.Management" command object.
5480 09:31:02 ERROR Could not instantiate "RecipientListManagement.SubscriberActivity.Actions.ShowVisitsCommand,RecipientListManagement" command object.
10900 09:33:17 ERROR Rendering TextFrame: {B5132335-A411-4162-9CA1-E66BC8298DF7}
Exception: System.NullReferenceException
Message: Object reference not set to an instance of an object.
Source: TM.Web.Custom
   at TM.Web.Custom.Modules.PXM.Rendering.SalesTeamRendererNameByIndex.GetContent(PrintContext printContext, XElement textFrameNode) in d:\EX2\Projects\TaylorMorrison\TMWeb\TM.WIP\src\TM.Web.Custom\Modules\PXM\Rendering\SalesTeamRendererNameByIndex.cs:line 45

10900 09:33:17 ERROR Rendering TextFrame: {23E844BE-3CB0-48FA-80CF-7A006F7C3365}
Exception: System.NullReferenceException
Message: Object reference not set to an instance of an object.
Source: TM.Web.Custom
   at TM.Web.Custom.Modules.PXM.Rendering.SalesTeamRendererPhoneByIndex.GetContent(PrintContext printContext, XElement textFrameNode) in d:\EX2\Projects\TaylorMorrison\TMWeb\TM.WIP\src\TM.Web.Custom\Modules\PXM\Rendering\SalesTeamRendererPhoneByIndex.cs:line 47

10900 09:33:17 ERROR Rendering TextFrame: {260316AB-F414-4448-BE5E-BFA78C49C46F}
Exception: System.NullReferenceException
Message: Object reference not set to an instance of an object.
Source: TM.Web.Custom
   at TM.Web.Custom.Modules.PXM.Rendering.SalesTeamRendererEmailByIndex.GetContent(PrintContext printContext, XElement textFrameNode) in d:\EX2\Projects\TaylorMorrison\TMWeb\TM.WIP\src\TM.Web.Custom\Modules\PXM\Rendering\SalesTeamRendererEmailByIndex.cs:line 43

7148 09:33:52 ERROR Rendering TextFrame: {B5132335-A411-4162-9CA1-E66BC8298DF7}
Exception: System.NullReferenceException
Message: Object reference not set to an instance of an object.
Source: TM.Web.Custom
   at TM.Web.Custom.Modules.PXM.Rendering.SalesTeamRendererNameByIndex.GetContent(PrintContext printContext, XElement textFrameNode) in d:\EX2\Projects\TaylorMorrison\TMWeb\TM.WIP\src\TM.Web.Custom\Modules\PXM\Rendering\SalesTeamRendererNameByIndex.cs:line 45

7148 09:33:52 ERROR Rendering TextFrame: {23E844BE-3CB0-48FA-80CF-7A006F7C3365}
Exception: System.NullReferenceException
Message: Object reference not set to an instance of an object.
Source: TM.Web.Custom
   at TM.Web.Custom.Modules.PXM.Rendering.SalesTeamRendererPhoneByIndex.GetContent(PrintContext printContext, XElement textFrameNode) in d:\EX2\Projects\TaylorMorrison\TMWeb\TM.WIP\src\TM.Web.Custom\Modules\PXM\Rendering\SalesTeamRendererPhoneByIndex.cs:line 47

7148 09:33:52 ERROR Rendering TextFrame: {260316AB-F414-4448-BE5E-BFA78C49C46F}
Exception: System.NullReferenceException
Message: Object reference not set to an instance of an object.
Source: TM.Web.Custom
   at TM.Web.Custom.Modules.PXM.Rendering.SalesTeamRendererEmailByIndex.GetContent(PrintContext printContext, XElement textFrameNode) in d:\EX2\Projects\TaylorMorrison\TMWeb\TM.WIP\src\TM.Web.Custom\Modules\PXM\Rendering\SalesTeamRendererEmailByIndex.cs:line 43

7148 09:36:57 ERROR Rendering TextFrame: {B5132335-A411-4162-9CA1-E66BC8298DF7}
Exception: System.NullReferenceException
Message: Object reference not set to an instance of an object.
Source: TM.Web.Custom
   at TM.Web.Custom.Modules.PXM.Rendering.SalesTeamRendererNameByIndex.GetContent(PrintContext printContext, XElement textFrameNode) in d:\EX2\Projects\TaylorMorrison\TMWeb\TM.WIP\src\TM.Web.Custom\Modules\PXM\Rendering\SalesTeamRendererNameByIndex.cs:line 45

7148 09:36:57 ERROR Rendering TextFrame: {23E844BE-3CB0-48FA-80CF-7A006F7C3365}
Exception: System.NullReferenceException
Message: Object reference not set to an instance of an object.
Source: TM.Web.Custom
   at TM.Web.Custom.Modules.PXM.Rendering.SalesTeamRendererPhoneByIndex.GetContent(PrintContext printContext, XElement textFrameNode) in d:\EX2\Projects\TaylorMorrison\TMWeb\TM.WIP\src\TM.Web.Custom\Modules\PXM\Rendering\SalesTeamRendererPhoneByIndex.cs:line 47

7148 09:36:57 ERROR Rendering TextFrame: {260316AB-F414-4448-BE5E-BFA78C49C46F}
Exception: System.NullReferenceException
Message: Object reference not set to an instance of an object.
Source: TM.Web.Custom
   at TM.Web.Custom.Modules.PXM.Rendering.SalesTeamRendererEmailByIndex.GetContent(PrintContext printContext, XElement textFrameNode) in d:\EX2\Projects\TaylorMorrison\TMWeb\TM.WIP\src\TM.Web.Custom\Modules\PXM\Rendering\SalesTeamRendererEmailByIndex.cs:line 43

18100 09:39:32 ERROR Rendering TextFrame: {B5132335-A411-4162-9CA1-E66BC8298DF7}
Exception: System.NullReferenceException
Message: Object reference not set to an instance of an object.
Source: TM.Web.Custom
   at TM.Web.Custom.Modules.PXM.Rendering.SalesTeamRendererNameByIndex.GetContent(PrintContext printContext, XElement textFrameNode) in d:\EX2\Projects\TaylorMorrison\TMWeb\TM.WIP\src\TM.Web.Custom\Modules\PXM\Rendering\SalesTeamRendererNameByIndex.cs:line 45

18100 09:39:32 ERROR Rendering TextFrame: {23E844BE-3CB0-48FA-80CF-7A006F7C3365}
Exception: System.NullReferenceException
Message: Object reference not set to an instance of an object.
Source: TM.Web.Custom
   at TM.Web.Custom.Modules.PXM.Rendering.SalesTeamRendererPhoneByIndex.GetContent(PrintContext printContext, XElement textFrameNode) in d:\EX2\Projects\TaylorMorrison\TMWeb\TM.WIP\src\TM.Web.Custom\Modules\PXM\Rendering\SalesTeamRendererPhoneByIndex.cs:line 47

18100 09:39:32 ERROR Rendering TextFrame: {260316AB-F414-4448-BE5E-BFA78C49C46F}
Exception: System.NullReferenceException
Message: Object reference not set to an instance of an object.
Source: TM.Web.Custom
   at TM.Web.Custom.Modules.PXM.Rendering.SalesTeamRendererEmailByIndex.GetContent(PrintContext printContext, XElement textFrameNode) in d:\EX2\Projects\TaylorMorrison\TMWeb\TM.WIP\src\TM.Web.Custom\Modules\PXM\Rendering\SalesTeamRendererEmailByIndex.cs:line 43

21824 10:01:33 ERROR Rendering TextFrame: {B5132335-A411-4162-9CA1-E66BC8298DF7}
Exception: System.NullReferenceException
Message: Object reference not set to an instance of an object.
Source: TM.Web.Custom
   at TM.Web.Custom.Modules.PXM.Rendering.SalesTeamRendererNameByIndex.GetContent(PrintContext printContext, XElement textFrameNode) in d:\EX2\Projects\TaylorMorrison\TMWeb\TM.WIP\src\TM.Web.Custom\Modules\PXM\Rendering\SalesTeamRendererNameByIndex.cs:line 45

21824 10:01:33 ERROR Rendering TextFrame: {23E844BE-3CB0-48FA-80CF-7A006F7C3365}
Exception: System.NullReferenceException
Message: Object reference not set to an instance of an object.
Source: TM.Web.Custom
   at TM.Web.Custom.Modules.PXM.Rendering.SalesTeamRendererPhoneByIndex.GetContent(PrintContext printContext, XElement textFrameNode) in d:\EX2\Projects\TaylorMorrison\TMWeb\TM.WIP\src\TM.Web.Custom\Modules\PXM\Rendering\SalesTeamRendererPhoneByIndex.cs:line 47

21824 10:01:33 ERROR Rendering TextFrame: {260316AB-F414-4448-BE5E-BFA78C49C46F}
Exception: System.NullReferenceException
Message: Object reference not set to an instance of an object.
Source: TM.Web.Custom
   at TM.Web.Custom.Modules.PXM.Rendering.SalesTeamRendererEmailByIndex.GetContent(PrintContext printContext, XElement textFrameNode) in d:\EX2\Projects\TaylorMorrison\TMWeb\TM.WIP\src\TM.Web.Custom\Modules\PXM\Rendering\SalesTeamRendererEmailByIndex.cs:line 43

ManagedPoolThread #2 10:06:48 ERROR Failed to perform MaxMind lookup
ManagedPoolThread #2 10:06:48 ERROR Failed to perform GeoIp lookup for 127.0.0.1
Exception: Sitecore.Analytics.Lookups.CannotParseResponseException
Message: Unexpected format. Cannot parse the MaxMind response for IP address: 127.0.0.1

Source: Sitecore.Analytics
   at Sitecore.Analytics.Lookups.MaxMindProvider.GetInformationByIp(String ip)
   at Sitecore.Analytics.Lookups.GeoIpManager.GetDataFromLookupProvider(GeoIpHandle geoIpHandle)

19248 10:11:15 ERROR Rendering TextFrame: {B5132335-A411-4162-9CA1-E66BC8298DF7}
Exception: System.NullReferenceException
Message: Object reference not set to an instance of an object.
Source: TM.Web.Custom
   at TM.Web.Custom.Modules.PXM.Rendering.SalesTeamRendererNameByIndex.GetContent(PrintContext printContext, XElement textFrameNode) in d:\EX2\Projects\TaylorMorrison\TMWeb\TM.WIP\src\TM.Web.Custom\Modules\PXM\Rendering\SalesTeamRendererNameByIndex.cs:line 45

19248 10:11:15 ERROR Rendering TextFrame: {23E844BE-3CB0-48FA-80CF-7A006F7C3365}
Exception: System.NullReferenceException
Message: Object reference not set to an instance of an object.
Source: TM.Web.Custom
   at TM.Web.Custom.Modules.PXM.Rendering.SalesTeamRendererPhoneByIndex.GetContent(PrintContext printContext, XElement textFrameNode) in d:\EX2\Projects\TaylorMorrison\TMWeb\TM.WIP\src\TM.Web.Custom\Modules\PXM\Rendering\SalesTeamRendererPhoneByIndex.cs:line 47

19248 10:11:15 ERROR Rendering TextFrame: {260316AB-F414-4448-BE5E-BFA78C49C46F}
Exception: System.NullReferenceException
Message: Object reference not set to an instance of an object.
Source: TM.Web.Custom
   at TM.Web.Custom.Modules.PXM.Rendering.SalesTeamRendererEmailByIndex.GetContent(PrintContext printContext, XElement textFrameNode) in d:\EX2\Projects\TaylorMorrison\TMWeb\TM.WIP\src\TM.Web.Custom\Modules\PXM\Rendering\SalesTeamRendererEmailByIndex.cs:line 43

6852 10:15:16 ERROR Rendering TextFrame: {B5132335-A411-4162-9CA1-E66BC8298DF7}
Exception: System.NullReferenceException
Message: Object reference not set to an instance of an object.
Source: TM.Web.Custom
   at TM.Web.Custom.Modules.PXM.Rendering.SalesTeamRendererNameByIndex.GetContent(PrintContext printContext, XElement textFrameNode) in d:\EX2\Projects\TaylorMorrison\TMWeb\TM.WIP\src\TM.Web.Custom\Modules\PXM\Rendering\SalesTeamRendererNameByIndex.cs:line 45

6852 10:15:16 ERROR Rendering TextFrame: {23E844BE-3CB0-48FA-80CF-7A006F7C3365}
Exception: System.NullReferenceException
Message: Object reference not set to an instance of an object.
Source: TM.Web.Custom
   at TM.Web.Custom.Modules.PXM.Rendering.SalesTeamRendererPhoneByIndex.GetContent(PrintContext printContext, XElement textFrameNode) in d:\EX2\Projects\TaylorMorrison\TMWeb\TM.WIP\src\TM.Web.Custom\Modules\PXM\Rendering\SalesTeamRendererPhoneByIndex.cs:line 47

6852 10:15:16 ERROR Rendering TextFrame: {260316AB-F414-4448-BE5E-BFA78C49C46F}
Exception: System.NullReferenceException
Message: Object reference not set to an instance of an object.
Source: TM.Web.Custom
   at TM.Web.Custom.Modules.PXM.Rendering.SalesTeamRendererEmailByIndex.GetContent(PrintContext printContext, XElement textFrameNode) in d:\EX2\Projects\TaylorMorrison\TMWeb\TM.WIP\src\TM.Web.Custom\Modules\PXM\Rendering\SalesTeamRendererEmailByIndex.cs:line 43

14200 10:15:43 ERROR Rendering TextFrame: {B5132335-A411-4162-9CA1-E66BC8298DF7}
Exception: System.NullReferenceException
Message: Object reference not set to an instance of an object.
Source: TM.Web.Custom
   at TM.Web.Custom.Modules.PXM.Rendering.SalesTeamRendererNameByIndex.GetContent(PrintContext printContext, XElement textFrameNode) in d:\EX2\Projects\TaylorMorrison\TMWeb\TM.WIP\src\TM.Web.Custom\Modules\PXM\Rendering\SalesTeamRendererNameByIndex.cs:line 45

14200 10:15:43 ERROR Rendering TextFrame: {23E844BE-3CB0-48FA-80CF-7A006F7C3365}
Exception: System.NullReferenceException
Message: Object reference not set to an instance of an object.
Source: TM.Web.Custom
   at TM.Web.Custom.Modules.PXM.Rendering.SalesTeamRendererPhoneByIndex.GetContent(PrintContext printContext, XElement textFrameNode) in d:\EX2\Projects\TaylorMorrison\TMWeb\TM.WIP\src\TM.Web.Custom\Modules\PXM\Rendering\SalesTeamRendererPhoneByIndex.cs:line 47

14200 10:15:43 ERROR Rendering TextFrame: {260316AB-F414-4448-BE5E-BFA78C49C46F}
Exception: System.NullReferenceException
Message: Object reference not set to an instance of an object.
Source: TM.Web.Custom
   at TM.Web.Custom.Modules.PXM.Rendering.SalesTeamRendererEmailByIndex.GetContent(PrintContext printContext, XElement textFrameNode) in d:\EX2\Projects\TaylorMorrison\TMWeb\TM.WIP\src\TM.Web.Custom\Modules\PXM\Rendering\SalesTeamRendererEmailByIndex.cs:line 43

21824 10:16:47 ERROR Rendering TextFrame: {B5132335-A411-4162-9CA1-E66BC8298DF7}
Exception: System.NullReferenceException
Message: Object reference not set to an instance of an object.
Source: TM.Web.Custom
   at TM.Web.Custom.Modules.PXM.Rendering.SalesTeamRendererNameByIndex.GetContent(PrintContext printContext, XElement textFrameNode) in d:\EX2\Projects\TaylorMorrison\TMWeb\TM.WIP\src\TM.Web.Custom\Modules\PXM\Rendering\SalesTeamRendererNameByIndex.cs:line 45

21824 10:16:47 ERROR Rendering TextFrame: {23E844BE-3CB0-48FA-80CF-7A006F7C3365}
Exception: System.NullReferenceException
Message: Object reference not set to an instance of an object.
Source: TM.Web.Custom
   at TM.Web.Custom.Modules.PXM.Rendering.SalesTeamRendererPhoneByIndex.GetContent(PrintContext printContext, XElement textFrameNode) in d:\EX2\Projects\TaylorMorrison\TMWeb\TM.WIP\src\TM.Web.Custom\Modules\PXM\Rendering\SalesTeamRendererPhoneByIndex.cs:line 47

21824 10:16:47 ERROR Rendering TextFrame: {260316AB-F414-4448-BE5E-BFA78C49C46F}
Exception: System.NullReferenceException
Message: Object reference not set to an instance of an object.
Source: TM.Web.Custom
   at TM.Web.Custom.Modules.PXM.Rendering.SalesTeamRendererEmailByIndex.GetContent(PrintContext printContext, XElement textFrameNode) in d:\EX2\Projects\TaylorMorrison\TMWeb\TM.WIP\src\TM.Web.Custom\Modules\PXM\Rendering\SalesTeamRendererEmailByIndex.cs:line 43

16924 10:17:22 ERROR Rendering TextFrame: {B5132335-A411-4162-9CA1-E66BC8298DF7}
Exception: System.NullReferenceException
Message: Object reference not set to an instance of an object.
Source: TM.Web.Custom
   at TM.Web.Custom.Modules.PXM.Rendering.SalesTeamRendererNameByIndex.GetContent(PrintContext printContext, XElement textFrameNode) in d:\EX2\Projects\TaylorMorrison\TMWeb\TM.WIP\src\TM.Web.Custom\Modules\PXM\Rendering\SalesTeamRendererNameByIndex.cs:line 45

16924 10:17:22 ERROR Rendering TextFrame: {23E844BE-3CB0-48FA-80CF-7A006F7C3365}
Exception: System.NullReferenceException
Message: Object reference not set to an instance of an object.
Source: TM.Web.Custom
   at TM.Web.Custom.Modules.PXM.Rendering.SalesTeamRendererPhoneByIndex.GetContent(PrintContext printContext, XElement textFrameNode) in d:\EX2\Projects\TaylorMorrison\TMWeb\TM.WIP\src\TM.Web.Custom\Modules\PXM\Rendering\SalesTeamRendererPhoneByIndex.cs:line 47

16924 10:17:22 ERROR Rendering TextFrame: {260316AB-F414-4448-BE5E-BFA78C49C46F}
Exception: System.NullReferenceException
Message: Object reference not set to an instance of an object.
Source: TM.Web.Custom
   at TM.Web.Custom.Modules.PXM.Rendering.SalesTeamRendererEmailByIndex.GetContent(PrintContext printContext, XElement textFrameNode) in d:\EX2\Projects\TaylorMorrison\TMWeb\TM.WIP\src\TM.Web.Custom\Modules\PXM\Rendering\SalesTeamRendererEmailByIndex.cs:line 43

 868 10:19:32 ERROR Rendering TextFrame: {B5132335-A411-4162-9CA1-E66BC8298DF7}
Exception: System.NullReferenceException
Message: Object reference not set to an instance of an object.
Source: TM.Web.Custom
   at TM.Web.Custom.Modules.PXM.Rendering.SalesTeamRendererNameByIndex.GetContent(PrintContext printContext, XElement textFrameNode) in d:\EX2\Projects\TaylorMorrison\TMWeb\TM.WIP\src\TM.Web.Custom\Modules\PXM\Rendering\SalesTeamRendererNameByIndex.cs:line 45

 868 10:19:32 ERROR Rendering TextFrame: {23E844BE-3CB0-48FA-80CF-7A006F7C3365}
Exception: System.NullReferenceException
Message: Object reference not set to an instance of an object.
Source: TM.Web.Custom
   at TM.Web.Custom.Modules.PXM.Rendering.SalesTeamRendererPhoneByIndex.GetContent(PrintContext printContext, XElement textFrameNode) in d:\EX2\Projects\TaylorMorrison\TMWeb\TM.WIP\src\TM.Web.Custom\Modules\PXM\Rendering\SalesTeamRendererPhoneByIndex.cs:line 47

 868 10:19:32 ERROR Rendering TextFrame: {260316AB-F414-4448-BE5E-BFA78C49C46F}
Exception: System.NullReferenceException
Message: Object reference not set to an instance of an object.
Source: TM.Web.Custom
   at TM.Web.Custom.Modules.PXM.Rendering.SalesTeamRendererEmailByIndex.GetContent(PrintContext printContext, XElement textFrameNode) in d:\EX2\Projects\TaylorMorrison\TMWeb\TM.WIP\src\TM.Web.Custom\Modules\PXM\Rendering\SalesTeamRendererEmailByIndex.cs:line 43

21824 10:19:54 ERROR Rendering TextFrame: {B5132335-A411-4162-9CA1-E66BC8298DF7}
Exception: System.NullReferenceException
Message: Object reference not set to an instance of an object.
Source: TM.Web.Custom
   at TM.Web.Custom.Modules.PXM.Rendering.SalesTeamRendererNameByIndex.GetContent(PrintContext printContext, XElement textFrameNode) in d:\EX2\Projects\TaylorMorrison\TMWeb\TM.WIP\src\TM.Web.Custom\Modules\PXM\Rendering\SalesTeamRendererNameByIndex.cs:line 45

21824 10:19:54 ERROR Rendering TextFrame: {23E844BE-3CB0-48FA-80CF-7A006F7C3365}
Exception: System.NullReferenceException
Message: Object reference not set to an instance of an object.
Source: TM.Web.Custom
   at TM.Web.Custom.Modules.PXM.Rendering.SalesTeamRendererPhoneByIndex.GetContent(PrintContext printContext, XElement textFrameNode) in d:\EX2\Projects\TaylorMorrison\TMWeb\TM.WIP\src\TM.Web.Custom\Modules\PXM\Rendering\SalesTeamRendererPhoneByIndex.cs:line 47

21824 10:19:54 ERROR Rendering TextFrame: {260316AB-F414-4448-BE5E-BFA78C49C46F}
Exception: System.NullReferenceException
Message: Object reference not set to an instance of an object.
Source: TM.Web.Custom
   at TM.Web.Custom.Modules.PXM.Rendering.SalesTeamRendererEmailByIndex.GetContent(PrintContext printContext, XElement textFrameNode) in d:\EX2\Projects\TaylorMorrison\TMWeb\TM.WIP\src\TM.Web.Custom\Modules\PXM\Rendering\SalesTeamRendererEmailByIndex.cs:line 43

8476 10:22:34 ERROR Rendering TextFrame: {B5132335-A411-4162-9CA1-E66BC8298DF7}
Exception: System.NullReferenceException
Message: Object reference not set to an instance of an object.
Source: TM.Web.Custom
   at TM.Web.Custom.Modules.PXM.Rendering.SalesTeamRendererNameByIndex.GetContent(PrintContext printContext, XElement textFrameNode) in d:\EX2\Projects\TaylorMorrison\TMWeb\TM.WIP\src\TM.Web.Custom\Modules\PXM\Rendering\SalesTeamRendererNameByIndex.cs:line 45

8476 10:22:34 ERROR Rendering TextFrame: {23E844BE-3CB0-48FA-80CF-7A006F7C3365}
Exception: System.NullReferenceException
Message: Object reference not set to an instance of an object.
Source: TM.Web.Custom
   at TM.Web.Custom.Modules.PXM.Rendering.SalesTeamRendererPhoneByIndex.GetContent(PrintContext printContext, XElement textFrameNode) in d:\EX2\Projects\TaylorMorrison\TMWeb\TM.WIP\src\TM.Web.Custom\Modules\PXM\Rendering\SalesTeamRendererPhoneByIndex.cs:line 47

8476 10:22:34 ERROR Rendering TextFrame: {260316AB-F414-4448-BE5E-BFA78C49C46F}
Exception: System.NullReferenceException
Message: Object reference not set to an instance of an object.
Source: TM.Web.Custom
   at TM.Web.Custom.Modules.PXM.Rendering.SalesTeamRendererEmailByIndex.GetContent(PrintContext printContext, XElement textFrameNode) in d:\EX2\Projects\TaylorMorrison\TMWeb\TM.WIP\src\TM.Web.Custom\Modules\PXM\Rendering\SalesTeamRendererEmailByIndex.cs:line 43

7100 10:23:27 ERROR Rendering TextFrame: {B5132335-A411-4162-9CA1-E66BC8298DF7}
Exception: System.NullReferenceException
Message: Object reference not set to an instance of an object.
Source: TM.Web.Custom
   at TM.Web.Custom.Modules.PXM.Rendering.SalesTeamRendererNameByIndex.GetContent(PrintContext printContext, XElement textFrameNode) in d:\EX2\Projects\TaylorMorrison\TMWeb\TM.WIP\src\TM.Web.Custom\Modules\PXM\Rendering\SalesTeamRendererNameByIndex.cs:line 45

7100 10:23:27 ERROR Rendering TextFrame: {23E844BE-3CB0-48FA-80CF-7A006F7C3365}
Exception: System.NullReferenceException
Message: Object reference not set to an instance of an object.
Source: TM.Web.Custom
   at TM.Web.Custom.Modules.PXM.Rendering.SalesTeamRendererPhoneByIndex.GetContent(PrintContext printContext, XElement textFrameNode) in d:\EX2\Projects\TaylorMorrison\TMWeb\TM.WIP\src\TM.Web.Custom\Modules\PXM\Rendering\SalesTeamRendererPhoneByIndex.cs:line 47

7100 10:23:27 ERROR Rendering TextFrame: {260316AB-F414-4448-BE5E-BFA78C49C46F}
Exception: System.NullReferenceException
Message: Object reference not set to an instance of an object.
Source: TM.Web.Custom
   at TM.Web.Custom.Modules.PXM.Rendering.SalesTeamRendererEmailByIndex.GetContent(PrintContext printContext, XElement textFrameNode) in d:\EX2\Projects\TaylorMorrison\TMWeb\TM.WIP\src\TM.Web.Custom\Modules\PXM\Rendering\SalesTeamRendererEmailByIndex.cs:line 43

7100 10:23:56 ERROR Rendering TextFrame: {B5132335-A411-4162-9CA1-E66BC8298DF7}
Exception: System.NullReferenceException
Message: Object reference not set to an instance of an object.
Source: TM.Web.Custom
   at TM.Web.Custom.Modules.PXM.Rendering.SalesTeamRendererNameByIndex.GetContent(PrintContext printContext, XElement textFrameNode) in d:\EX2\Projects\TaylorMorrison\TMWeb\TM.WIP\src\TM.Web.Custom\Modules\PXM\Rendering\SalesTeamRendererNameByIndex.cs:line 45

7100 10:23:56 ERROR Rendering TextFrame: {23E844BE-3CB0-48FA-80CF-7A006F7C3365}
Exception: System.NullReferenceException
Message: Object reference not set to an instance of an object.
Source: TM.Web.Custom
   at TM.Web.Custom.Modules.PXM.Rendering.SalesTeamRendererPhoneByIndex.GetContent(PrintContext printContext, XElement textFrameNode) in d:\EX2\Projects\TaylorMorrison\TMWeb\TM.WIP\src\TM.Web.Custom\Modules\PXM\Rendering\SalesTeamRendererPhoneByIndex.cs:line 47

7100 10:23:56 ERROR Rendering TextFrame: {260316AB-F414-4448-BE5E-BFA78C49C46F}
Exception: System.NullReferenceException
Message: Object reference not set to an instance of an object.
Source: TM.Web.Custom
   at TM.Web.Custom.Modules.PXM.Rendering.SalesTeamRendererEmailByIndex.GetContent(PrintContext printContext, XElement textFrameNode) in d:\EX2\Projects\TaylorMorrison\TMWeb\TM.WIP\src\TM.Web.Custom\Modules\PXM\Rendering\SalesTeamRendererEmailByIndex.cs:line 43

20412 10:24:27 ERROR Rendering TextFrame: {B5132335-A411-4162-9CA1-E66BC8298DF7}
Exception: System.NullReferenceException
Message: Object reference not set to an instance of an object.
Source: TM.Web.Custom
   at TM.Web.Custom.Modules.PXM.Rendering.SalesTeamRendererNameByIndex.GetContent(PrintContext printContext, XElement textFrameNode) in d:\EX2\Projects\TaylorMorrison\TMWeb\TM.WIP\src\TM.Web.Custom\Modules\PXM\Rendering\SalesTeamRendererNameByIndex.cs:line 45

20412 10:24:27 ERROR Rendering TextFrame: {23E844BE-3CB0-48FA-80CF-7A006F7C3365}
Exception: System.NullReferenceException
Message: Object reference not set to an instance of an object.
Source: TM.Web.Custom
   at TM.Web.Custom.Modules.PXM.Rendering.SalesTeamRendererPhoneByIndex.GetContent(PrintContext printContext, XElement textFrameNode) in d:\EX2\Projects\TaylorMorrison\TMWeb\TM.WIP\src\TM.Web.Custom\Modules\PXM\Rendering\SalesTeamRendererPhoneByIndex.cs:line 47

20412 10:24:27 ERROR Rendering TextFrame: {260316AB-F414-4448-BE5E-BFA78C49C46F}
Exception: System.NullReferenceException
Message: Object reference not set to an instance of an object.
Source: TM.Web.Custom
   at TM.Web.Custom.Modules.PXM.Rendering.SalesTeamRendererEmailByIndex.GetContent(PrintContext printContext, XElement textFrameNode) in d:\EX2\Projects\TaylorMorrison\TMWeb\TM.WIP\src\TM.Web.Custom\Modules\PXM\Rendering\SalesTeamRendererEmailByIndex.cs:line 43

20064 10:24:57 ERROR Rendering TextFrame: {B5132335-A411-4162-9CA1-E66BC8298DF7}
Exception: System.NullReferenceException
Message: Object reference not set to an instance of an object.
Source: TM.Web.Custom
   at TM.Web.Custom.Modules.PXM.Rendering.SalesTeamRendererNameByIndex.GetContent(PrintContext printContext, XElement textFrameNode) in d:\EX2\Projects\TaylorMorrison\TMWeb\TM.WIP\src\TM.Web.Custom\Modules\PXM\Rendering\SalesTeamRendererNameByIndex.cs:line 45

20064 10:24:57 ERROR Rendering TextFrame: {23E844BE-3CB0-48FA-80CF-7A006F7C3365}
Exception: System.NullReferenceException
Message: Object reference not set to an instance of an object.
Source: TM.Web.Custom
   at TM.Web.Custom.Modules.PXM.Rendering.SalesTeamRendererPhoneByIndex.GetContent(PrintContext printContext, XElement textFrameNode) in d:\EX2\Projects\TaylorMorrison\TMWeb\TM.WIP\src\TM.Web.Custom\Modules\PXM\Rendering\SalesTeamRendererPhoneByIndex.cs:line 47

20064 10:24:57 ERROR Rendering TextFrame: {260316AB-F414-4448-BE5E-BFA78C49C46F}
Exception: System.NullReferenceException
Message: Object reference not set to an instance of an object.
Source: TM.Web.Custom
   at TM.Web.Custom.Modules.PXM.Rendering.SalesTeamRendererEmailByIndex.GetContent(PrintContext printContext, XElement textFrameNode) in d:\EX2\Projects\TaylorMorrison\TMWeb\TM.WIP\src\TM.Web.Custom\Modules\PXM\Rendering\SalesTeamRendererEmailByIndex.cs:line 43

7100 10:25:44 ERROR Rendering TextFrame: {B5132335-A411-4162-9CA1-E66BC8298DF7}
Exception: System.NullReferenceException
Message: Object reference not set to an instance of an object.
Source: TM.Web.Custom
   at TM.Web.Custom.Modules.PXM.Rendering.SalesTeamRendererNameByIndex.GetContent(PrintContext printContext, XElement textFrameNode) in d:\EX2\Projects\TaylorMorrison\TMWeb\TM.WIP\src\TM.Web.Custom\Modules\PXM\Rendering\SalesTeamRendererNameByIndex.cs:line 45

7100 10:25:44 ERROR Rendering TextFrame: {23E844BE-3CB0-48FA-80CF-7A006F7C3365}
Exception: System.NullReferenceException
Message: Object reference not set to an instance of an object.
Source: TM.Web.Custom
   at TM.Web.Custom.Modules.PXM.Rendering.SalesTeamRendererPhoneByIndex.GetContent(PrintContext printContext, XElement textFrameNode) in d:\EX2\Projects\TaylorMorrison\TMWeb\TM.WIP\src\TM.Web.Custom\Modules\PXM\Rendering\SalesTeamRendererPhoneByIndex.cs:line 47

7100 10:25:44 ERROR Rendering TextFrame: {260316AB-F414-4448-BE5E-BFA78C49C46F}
Exception: System.NullReferenceException
Message: Object reference not set to an instance of an object.
Source: TM.Web.Custom
   at TM.Web.Custom.Modules.PXM.Rendering.SalesTeamRendererEmailByIndex.GetContent(PrintContext printContext, XElement textFrameNode) in d:\EX2\Projects\TaylorMorrison\TMWeb\TM.WIP\src\TM.Web.Custom\Modules\PXM\Rendering\SalesTeamRendererEmailByIndex.cs:line 43

8476 10:26:07 ERROR Rendering TextFrame: {B5132335-A411-4162-9CA1-E66BC8298DF7}
Exception: System.NullReferenceException
Message: Object reference not set to an instance of an object.
Source: TM.Web.Custom
   at TM.Web.Custom.Modules.PXM.Rendering.SalesTeamRendererNameByIndex.GetContent(PrintContext printContext, XElement textFrameNode) in d:\EX2\Projects\TaylorMorrison\TMWeb\TM.WIP\src\TM.Web.Custom\Modules\PXM\Rendering\SalesTeamRendererNameByIndex.cs:line 45

8476 10:26:07 ERROR Rendering TextFrame: {23E844BE-3CB0-48FA-80CF-7A006F7C3365}
Exception: System.NullReferenceException
Message: Object reference not set to an instance of an object.
Source: TM.Web.Custom
   at TM.Web.Custom.Modules.PXM.Rendering.SalesTeamRendererPhoneByIndex.GetContent(PrintContext printContext, XElement textFrameNode) in d:\EX2\Projects\TaylorMorrison\TMWeb\TM.WIP\src\TM.Web.Custom\Modules\PXM\Rendering\SalesTeamRendererPhoneByIndex.cs:line 47

8476 10:26:07 ERROR Rendering TextFrame: {260316AB-F414-4448-BE5E-BFA78C49C46F}
Exception: System.NullReferenceException
Message: Object reference not set to an instance of an object.
Source: TM.Web.Custom
   at TM.Web.Custom.Modules.PXM.Rendering.SalesTeamRendererEmailByIndex.GetContent(PrintContext printContext, XElement textFrameNode) in d:\EX2\Projects\TaylorMorrison\TMWeb\TM.WIP\src\TM.Web.Custom\Modules\PXM\Rendering\SalesTeamRendererEmailByIndex.cs:line 43

11488 10:26:32 ERROR Rendering TextFrame: {B5132335-A411-4162-9CA1-E66BC8298DF7}
Exception: System.NullReferenceException
Message: Object reference not set to an instance of an object.
Source: TM.Web.Custom
   at TM.Web.Custom.Modules.PXM.Rendering.SalesTeamRendererNameByIndex.GetContent(PrintContext printContext, XElement textFrameNode) in d:\EX2\Projects\TaylorMorrison\TMWeb\TM.WIP\src\TM.Web.Custom\Modules\PXM\Rendering\SalesTeamRendererNameByIndex.cs:line 45

11488 10:26:32 ERROR Rendering TextFrame: {23E844BE-3CB0-48FA-80CF-7A006F7C3365}
Exception: System.NullReferenceException
Message: Object reference not set to an instance of an object.
Source: TM.Web.Custom
   at TM.Web.Custom.Modules.PXM.Rendering.SalesTeamRendererPhoneByIndex.GetContent(PrintContext printContext, XElement textFrameNode) in d:\EX2\Projects\TaylorMorrison\TMWeb\TM.WIP\src\TM.Web.Custom\Modules\PXM\Rendering\SalesTeamRendererPhoneByIndex.cs:line 47

11488 10:26:32 ERROR Rendering TextFrame: {260316AB-F414-4448-BE5E-BFA78C49C46F}
Exception: System.NullReferenceException
Message: Object reference not set to an instance of an object.
Source: TM.Web.Custom
   at TM.Web.Custom.Modules.PXM.Rendering.SalesTeamRendererEmailByIndex.GetContent(PrintContext printContext, XElement textFrameNode) in d:\EX2\Projects\TaylorMorrison\TMWeb\TM.WIP\src\TM.Web.Custom\Modules\PXM\Rendering\SalesTeamRendererEmailByIndex.cs:line 43

11488 10:27:14 ERROR Rendering TextFrame: {B5132335-A411-4162-9CA1-E66BC8298DF7}
Exception: System.NullReferenceException
Message: Object reference not set to an instance of an object.
Source: TM.Web.Custom
   at TM.Web.Custom.Modules.PXM.Rendering.SalesTeamRendererNameByIndex.GetContent(PrintContext printContext, XElement textFrameNode) in d:\EX2\Projects\TaylorMorrison\TMWeb\TM.WIP\src\TM.Web.Custom\Modules\PXM\Rendering\SalesTeamRendererNameByIndex.cs:line 45

11488 10:27:14 ERROR Rendering TextFrame: {23E844BE-3CB0-48FA-80CF-7A006F7C3365}
Exception: System.NullReferenceException
Message: Object reference not set to an instance of an object.
Source: TM.Web.Custom
   at TM.Web.Custom.Modules.PXM.Rendering.SalesTeamRendererPhoneByIndex.GetContent(PrintContext printContext, XElement textFrameNode) in d:\EX2\Projects\TaylorMorrison\TMWeb\TM.WIP\src\TM.Web.Custom\Modules\PXM\Rendering\SalesTeamRendererPhoneByIndex.cs:line 47

11488 10:27:14 ERROR Rendering TextFrame: {260316AB-F414-4448-BE5E-BFA78C49C46F}
Exception: System.NullReferenceException
Message: Object reference not set to an instance of an object.
Source: TM.Web.Custom
   at TM.Web.Custom.Modules.PXM.Rendering.SalesTeamRendererEmailByIndex.GetContent(PrintContext printContext, XElement textFrameNode) in d:\EX2\Projects\TaylorMorrison\TMWeb\TM.WIP\src\TM.Web.Custom\Modules\PXM\Rendering\SalesTeamRendererEmailByIndex.cs:line 43

1328 10:29:31 ERROR Rendering TextFrame: {B5132335-A411-4162-9CA1-E66BC8298DF7}
Exception: System.NullReferenceException
Message: Object reference not set to an instance of an object.
Source: TM.Web.Custom
   at TM.Web.Custom.Modules.PXM.Rendering.SalesTeamRendererNameByIndex.GetContent(PrintContext printContext, XElement textFrameNode) in d:\EX2\Projects\TaylorMorrison\TMWeb\TM.WIP\src\TM.Web.Custom\Modules\PXM\Rendering\SalesTeamRendererNameByIndex.cs:line 45

1328 10:29:31 ERROR Rendering TextFrame: {23E844BE-3CB0-48FA-80CF-7A006F7C3365}
Exception: System.NullReferenceException
Message: Object reference not set to an instance of an object.
Source: TM.Web.Custom
   at TM.Web.Custom.Modules.PXM.Rendering.SalesTeamRendererPhoneByIndex.GetContent(PrintContext printContext, XElement textFrameNode) in d:\EX2\Projects\TaylorMorrison\TMWeb\TM.WIP\src\TM.Web.Custom\Modules\PXM\Rendering\SalesTeamRendererPhoneByIndex.cs:line 47

1328 10:29:31 ERROR Rendering TextFrame: {260316AB-F414-4448-BE5E-BFA78C49C46F}
Exception: System.NullReferenceException
Message: Object reference not set to an instance of an object.
Source: TM.Web.Custom
   at TM.Web.Custom.Modules.PXM.Rendering.SalesTeamRendererEmailByIndex.GetContent(PrintContext printContext, XElement textFrameNode) in d:\EX2\Projects\TaylorMorrison\TMWeb\TM.WIP\src\TM.Web.Custom\Modules\PXM\Rendering\SalesTeamRendererEmailByIndex.cs:line 43

3416 10:30:24 ERROR Rendering TextFrame: {B5132335-A411-4162-9CA1-E66BC8298DF7}
Exception: System.NullReferenceException
Message: Object reference not set to an instance of an object.
Source: TM.Web.Custom
   at TM.Web.Custom.Modules.PXM.Rendering.SalesTeamRendererNameByIndex.GetContent(PrintContext printContext, XElement textFrameNode) in d:\EX2\Projects\TaylorMorrison\TMWeb\TM.WIP\src\TM.Web.Custom\Modules\PXM\Rendering\SalesTeamRendererNameByIndex.cs:line 45

3416 10:30:24 ERROR Rendering TextFrame: {23E844BE-3CB0-48FA-80CF-7A006F7C3365}
Exception: System.NullReferenceException
Message: Object reference not set to an instance of an object.
Source: TM.Web.Custom
   at TM.Web.Custom.Modules.PXM.Rendering.SalesTeamRendererPhoneByIndex.GetContent(PrintContext printContext, XElement textFrameNode) in d:\EX2\Projects\TaylorMorrison\TMWeb\TM.WIP\src\TM.Web.Custom\Modules\PXM\Rendering\SalesTeamRendererPhoneByIndex.cs:line 47

3416 10:30:24 ERROR Rendering TextFrame: {260316AB-F414-4448-BE5E-BFA78C49C46F}
Exception: System.NullReferenceException
Message: Object reference not set to an instance of an object.
Source: TM.Web.Custom
   at TM.Web.Custom.Modules.PXM.Rendering.SalesTeamRendererEmailByIndex.GetContent(PrintContext printContext, XElement textFrameNode) in d:\EX2\Projects\TaylorMorrison\TMWeb\TM.WIP\src\TM.Web.Custom\Modules\PXM\Rendering\SalesTeamRendererEmailByIndex.cs:line 43

11488 10:30:46 ERROR Rendering TextFrame: {B5132335-A411-4162-9CA1-E66BC8298DF7}
Exception: System.NullReferenceException
Message: Object reference not set to an instance of an object.
Source: TM.Web.Custom
   at TM.Web.Custom.Modules.PXM.Rendering.SalesTeamRendererNameByIndex.GetContent(PrintContext printContext, XElement textFrameNode) in d:\EX2\Projects\TaylorMorrison\TMWeb\TM.WIP\src\TM.Web.Custom\Modules\PXM\Rendering\SalesTeamRendererNameByIndex.cs:line 45

11488 10:30:46 ERROR Rendering TextFrame: {23E844BE-3CB0-48FA-80CF-7A006F7C3365}
Exception: System.NullReferenceException
Message: Object reference not set to an instance of an object.
Source: TM.Web.Custom
   at TM.Web.Custom.Modules.PXM.Rendering.SalesTeamRendererPhoneByIndex.GetContent(PrintContext printContext, XElement textFrameNode) in d:\EX2\Projects\TaylorMorrison\TMWeb\TM.WIP\src\TM.Web.Custom\Modules\PXM\Rendering\SalesTeamRendererPhoneByIndex.cs:line 47

11488 10:30:46 ERROR Rendering TextFrame: {260316AB-F414-4448-BE5E-BFA78C49C46F}
Exception: System.NullReferenceException
Message: Object reference not set to an instance of an object.
Source: TM.Web.Custom
   at TM.Web.Custom.Modules.PXM.Rendering.SalesTeamRendererEmailByIndex.GetContent(PrintContext printContext, XElement textFrameNode) in d:\EX2\Projects\TaylorMorrison\TMWeb\TM.WIP\src\TM.Web.Custom\Modules\PXM\Rendering\SalesTeamRendererEmailByIndex.cs:line 43

ManagedPoolThread #4 11:06:53 ERROR Failed to perform MaxMind lookup
ManagedPoolThread #4 11:06:53 ERROR Failed to perform GeoIp lookup for 127.0.0.1
Exception: Sitecore.Analytics.Lookups.CannotParseResponseException
Message: Unexpected format. Cannot parse the MaxMind response for IP address: 127.0.0.1

Source: Sitecore.Analytics
   at Sitecore.Analytics.Lookups.MaxMindProvider.GetInformationByIp(String ip)
   at Sitecore.Analytics.Lookups.GeoIpManager.GetDataFromLookupProvider(GeoIpHandle geoIpHandle)

20064 11:11:41 ERROR Rendering TextFrame: {82090A3D-DDC2-4464-963F-C0C56CDD09B3}
Exception: System.NullReferenceException
Message: Object reference not set to an instance of an object.
Source: TM.Web.Custom
   at TM.Web.Custom.Modules.PXM.Rendering.SalesTeamRendererNameByIndex.GetContent(PrintContext printContext, XElement textFrameNode) in d:\EX2\Projects\TaylorMorrison\TMWeb\TM.WIP\src\TM.Web.Custom\Modules\PXM\Rendering\SalesTeamRendererNameByIndex.cs:line 45

20064 11:11:41 ERROR Rendering TextFrame: {BC8F5E1C-F165-48A7-BBEC-0A84F25AA980}
Exception: System.NullReferenceException
Message: Object reference not set to an instance of an object.
Source: TM.Web.Custom
   at TM.Web.Custom.Modules.PXM.Rendering.SalesTeamRendererPhoneByIndex.GetContent(PrintContext printContext, XElement textFrameNode) in d:\EX2\Projects\TaylorMorrison\TMWeb\TM.WIP\src\TM.Web.Custom\Modules\PXM\Rendering\SalesTeamRendererPhoneByIndex.cs:line 47

20064 11:11:41 ERROR Rendering TextFrame: {3BED9F84-913B-4727-8156-1B3685346093}
Exception: System.NullReferenceException
Message: Object reference not set to an instance of an object.
Source: TM.Web.Custom
   at TM.Web.Custom.Modules.PXM.Rendering.SalesTeamRendererEmailByIndex.GetContent(PrintContext printContext, XElement textFrameNode) in d:\EX2\Projects\TaylorMorrison\TMWeb\TM.WIP\src\TM.Web.Custom\Modules\PXM\Rendering\SalesTeamRendererEmailByIndex.cs:line 43

20064 11:11:41 ERROR Rendering TextFrame: {8C9BCDD1-BEE7-4CC0-907A-26230D1E1384}
Exception: System.NullReferenceException
Message: Object reference not set to an instance of an object.
Source: TM.Web.Custom
   at TM.Web.Custom.Modules.PXM.Rendering.SalesTeamRendererPhoneByIndex.GetContent(PrintContext printContext, XElement textFrameNode) in d:\EX2\Projects\TaylorMorrison\TMWeb\TM.WIP\src\TM.Web.Custom\Modules\PXM\Rendering\SalesTeamRendererPhoneByIndex.cs:line 51

20064 11:11:41 ERROR Rendering TextFrame: {74FD36E7-404F-4F3A-BDB5-529913CAE9AF}
Exception: System.NullReferenceException
Message: Object reference not set to an instance of an object.
Source: TM.Web.Custom
   at TM.Web.Custom.Modules.PXM.Rendering.SalesTeamRendererNameByIndex.GetContent(PrintContext printContext, XElement textFrameNode) in d:\EX2\Projects\TaylorMorrison\TMWeb\TM.WIP\src\TM.Web.Custom\Modules\PXM\Rendering\SalesTeamRendererNameByIndex.cs:line 49

20064 11:11:41 ERROR Rendering TextFrame: {8C1A21A6-B6D2-425A-AD88-60718CDD562A}
Exception: System.NullReferenceException
Message: Object reference not set to an instance of an object.
Source: TM.Web.Custom
   at TM.Web.Custom.Modules.PXM.Rendering.SalesTeamRendererEmailByIndex.GetContent(PrintContext printContext, XElement textFrameNode) in d:\EX2\Projects\TaylorMorrison\TMWeb\TM.WIP\src\TM.Web.Custom\Modules\PXM\Rendering\SalesTeamRendererEmailByIndex.cs:line 47

ManagedPoolThread #17 12:09:45 ERROR Failed to perform MaxMind lookup
ManagedPoolThread #17 12:09:45 ERROR Failed to perform GeoIp lookup for 127.0.0.1
Exception: Sitecore.Analytics.Lookups.CannotParseResponseException
Message: Unexpected format. Cannot parse the MaxMind response for IP address: 127.0.0.1

Source: Sitecore.Analytics
   at Sitecore.Analytics.Lookups.MaxMindProvider.GetInformationByIp(String ip)
   at Sitecore.Analytics.Lookups.GeoIpManager.GetDataFromLookupProvider(GeoIpHandle geoIpHandle)

16776 12:41:44 ERROR Application error.
Exception: System.Web.HttpUnhandledException
Message: Exception of type 'System.Web.HttpUnhandledException' was thrown.
Source: System.Web
   at System.Web.UI.Page.HandleError(Exception e)
   at System.Web.UI.Page.ProcessRequestMain(Boolean includeStagesBeforeAsyncPoint, Boolean includeStagesAfterAsyncPoint)
   at System.Web.UI.Page.ProcessRequest(Boolean includeStagesBeforeAsyncPoint, Boolean includeStagesAfterAsyncPoint)
   at System.Web.UI.Page.ProcessRequest()
   at System.Web.UI.Page.ProcessRequest(HttpContext context)
   at System.Web.HttpApplication.CallHandlerExecutionStep.System.Web.HttpApplication.IExecutionStep.Execute()
   at System.Web.HttpApplication.ExecuteStep(IExecutionStep step, Boolean& completedSynchronously)

Nested Exception

Exception: System.Data.SqlClient.SqlException
Message: Connection Timeout Expired.  The timeout period elapsed while attempting to consume the pre-login handshake acknowledgement.  This could be because the pre-login handshake failed or the server was unable to respond back in time.  The duration spent while attempting to connect to this server was - [Pre-Login] initialization=13111; handshake=3692; 
Source: .Net SqlClient Data Provider
   at System.Data.SqlClient.SqlInternalConnectionTds..ctor(DbConnectionPoolIdentity identity, SqlConnectionString connectionOptions, SqlCredential credential, Object providerInfo, String newPassword, SecureString newSecurePassword, Boolean redirectedUserInstance, SqlConnectionString userConnectionOptions, SessionData reconnectSessionData, DbConnectionPool pool, String accessToken, Boolean applyTransientFaultHandling)
   at System.Data.SqlClient.SqlConnectionFactory.CreateConnection(DbConnectionOptions options, DbConnectionPoolKey poolKey, Object poolGroupProviderInfo, DbConnectionPool pool, DbConnection owningConnection, DbConnectionOptions userOptions)
   at System.Data.ProviderBase.DbConnectionFactory.CreatePooledConnection(DbConnectionPool pool, DbConnection owningObject, DbConnectionOptions options, DbConnectionPoolKey poolKey, DbConnectionOptions userOptions)
   at System.Data.ProviderBase.DbConnectionPool.CreateObject(DbConnection owningObject, DbConnectionOptions userOptions, DbConnectionInternal oldConnection)
   at System.Data.ProviderBase.DbConnectionPool.UserCreateRequest(DbConnection owningObject, DbConnectionOptions userOptions, DbConnectionInternal oldConnection)
   at System.Data.ProviderBase.DbConnectionPool.TryGetConnection(DbConnection owningObject, UInt32 waitForMultipleObjectsTimeout, Boolean allowCreate, Boolean onlyOneCheckConnection, DbConnectionOptions userOptions, DbConnectionInternal& connection)
   at System.Data.ProviderBase.DbConnectionPool.TryGetConnection(DbConnection owningObject, TaskCompletionSource`1 retry, DbConnectionOptions userOptions, DbConnectionInternal& connection)
   at System.Data.ProviderBase.DbConnectionFactory.TryGetConnection(DbConnection owningConnection, TaskCompletionSource`1 retry, DbConnectionOptions userOptions, DbConnectionInternal oldConnection, DbConnectionInternal& connection)
   at System.Data.ProviderBase.DbConnectionInternal.TryOpenConnectionInternal(DbConnection outerConnection, DbConnectionFactory connectionFactory, TaskCompletionSource`1 retry, DbConnectionOptions userOptions)
   at System.Data.SqlClient.SqlConnection.TryOpenInner(TaskCompletionSource`1 retry)
   at System.Data.SqlClient.SqlConnection.TryOpen(TaskCompletionSource`1 retry)
   at System.Data.SqlClient.SqlConnection.Open()
   at BHI.Session.WebSession.LoadSession(Guid sessionID) in d:\Projects\Ex2\BHI Common\.NET 4.0\1.0\Session\BHI.Session\WebSession.cs:line 969
   at BHI.Session.WebSession.Load(Guid sessionID) in d:\Projects\Ex2\BHI Common\.NET 4.0\1.0\Session\BHI.Session\WebSession.cs:line 512
   at BHI.Session.WebSession.CreateSessionFromCookie() in d:\Projects\Ex2\BHI Common\.NET 4.0\1.0\Session\BHI.Session\WebSession.cs:line 819
   at BHI.Session.WebSession..ctor(Boolean isSecure, Boolean autoLoad) in d:\Projects\Ex2\BHI Common\.NET 4.0\1.0\Session\BHI.Session\WebSession.cs:line 325
   at TM.Utils.Web.TMSession..ctor()
   at TM.Web.Custom.Layouts.BasePage.OnPreInit(EventArgs e) in d:\EX2\Projects\TaylorMorrison\TMWeb\TM.WIP\src\TM.Web.Custom\layouts\BasePage.cs:line 69
   at System.Web.UI.Page.PerformPreInit()
   at System.Web.UI.Page.ProcessRequestMain(Boolean includeStagesBeforeAsyncPoint, Boolean includeStagesAfterAsyncPoint)

Nested Exception

Exception: System.ComponentModel.Win32Exception
Message: The wait operation timed out



16776 12:41:44 ERROR Exception of type 'System.Web.HttpUnhandledException' was thrown.
16776 12:41:44 ERROR Connection Timeout Expired.  The timeout period elapsed while attempting to consume the pre-login handshake acknowledgement.  This could be because the pre-login handshake failed or the server was unable to respond back in time.  The duration spent while attempting to connect to this server was - [Pre-Login] initialization=13111; handshake=3692; 
16776 12:42:07 ERROR Application error.
Exception: System.Data.SqlClient.SqlException
Message: Connection Timeout Expired.  The timeout period elapsed while attempting to consume the pre-login handshake acknowledgement.  This could be because the pre-login handshake failed or the server was unable to respond back in time.  The duration spent while attempting to connect to this server was - [Pre-Login] initialization=10158; handshake=7818; 
Source: .Net SqlClient Data Provider
   at System.Data.SqlClient.SqlInternalConnectionTds..ctor(DbConnectionPoolIdentity identity, SqlConnectionString connectionOptions, SqlCredential credential, Object providerInfo, String newPassword, SecureString newSecurePassword, Boolean redirectedUserInstance, SqlConnectionString userConnectionOptions, SessionData reconnectSessionData, DbConnectionPool pool, String accessToken, Boolean applyTransientFaultHandling)
   at System.Data.SqlClient.SqlConnectionFactory.CreateConnection(DbConnectionOptions options, DbConnectionPoolKey poolKey, Object poolGroupProviderInfo, DbConnectionPool pool, DbConnection owningConnection, DbConnectionOptions userOptions)
   at System.Data.ProviderBase.DbConnectionFactory.CreatePooledConnection(DbConnectionPool pool, DbConnection owningObject, DbConnectionOptions options, DbConnectionPoolKey poolKey, DbConnectionOptions userOptions)
   at System.Data.ProviderBase.DbConnectionPool.CreateObject(DbConnection owningObject, DbConnectionOptions userOptions, DbConnectionInternal oldConnection)
   at System.Data.ProviderBase.DbConnectionPool.UserCreateRequest(DbConnection owningObject, DbConnectionOptions userOptions, DbConnectionInternal oldConnection)
   at System.Data.ProviderBase.DbConnectionPool.TryGetConnection(DbConnection owningObject, UInt32 waitForMultipleObjectsTimeout, Boolean allowCreate, Boolean onlyOneCheckConnection, DbConnectionOptions userOptions, DbConnectionInternal& connection)
   at System.Data.ProviderBase.DbConnectionPool.TryGetConnection(DbConnection owningObject, TaskCompletionSource`1 retry, DbConnectionOptions userOptions, DbConnectionInternal& connection)
   at System.Data.ProviderBase.DbConnectionFactory.TryGetConnection(DbConnection owningConnection, TaskCompletionSource`1 retry, DbConnectionOptions userOptions, DbConnectionInternal oldConnection, DbConnectionInternal& connection)
   at System.Data.ProviderBase.DbConnectionInternal.TryOpenConnectionInternal(DbConnection outerConnection, DbConnectionFactory connectionFactory, TaskCompletionSource`1 retry, DbConnectionOptions userOptions)
   at System.Data.SqlClient.SqlConnection.TryOpenInner(TaskCompletionSource`1 retry)
   at System.Data.SqlClient.SqlConnection.TryOpen(TaskCompletionSource`1 retry)
   at System.Data.SqlClient.SqlConnection.Open()
   at BHI.Session.WebSession.LoadSession(Guid sessionID) in d:\Projects\Ex2\BHI Common\.NET 4.0\1.0\Session\BHI.Session\WebSession.cs:line 969
   at BHI.Session.WebSession.Load(Guid sessionID) in d:\Projects\Ex2\BHI Common\.NET 4.0\1.0\Session\BHI.Session\WebSession.cs:line 512
   at BHI.Session.WebSession.CreateSessionFromCookie() in d:\Projects\Ex2\BHI Common\.NET 4.0\1.0\Session\BHI.Session\WebSession.cs:line 819
   at BHI.Session.WebSession..ctor(Boolean isSecure, Boolean autoLoad) in d:\Projects\Ex2\BHI Common\.NET 4.0\1.0\Session\BHI.Session\WebSession.cs:line 325
   at TM.Utils.Web.TMSession..ctor()
   at TM.Web.Custom.Pipelines.RequestProcessor.VirtualRequestProcessor.Process(HttpRequestArgs args) in d:\EX2\Projects\TaylorMorrison\TMWeb\TM.WIP\src\TM.Web.Custom\Pipelines\RequestProcessor\VirtualRequestProcessor.cs:line 76
   at (Object , Object[] )
   at Sitecore.Pipelines.CorePipeline.Run(PipelineArgs args)
   at Sitecore.Nexus.Web.HttpModule.(Object , EventArgs )
   at System.Web.HttpApplication.SyncEventExecutionStep.System.Web.HttpApplication.IExecutionStep.Execute()
   at System.Web.HttpApplication.ExecuteStep(IExecutionStep step, Boolean& completedSynchronously)

Nested Exception

Exception: System.ComponentModel.Win32Exception
Message: The wait operation timed out


16776 12:42:07 ERROR Connection Timeout Expired.  The timeout period elapsed while attempting to consume the pre-login handshake acknowledgement.  This could be because the pre-login handshake failed or the server was unable to respond back in time.  The duration spent while attempting to connect to this server was - [Pre-Login] initialization=10158; handshake=7818; 
16776 12:42:07 ERROR The wait operation timed out
3416 12:43:06 ERROR Missing renderer for item {B2B994DB-2D81-40E8-AB67-452B2B872512}
3416 12:43:06 ERROR Missing renderer for item {7C786CBA-45EE-49CC-A7CA-E72F7D548F7B}
3416 12:43:06 ERROR Missing renderer for item {2FA32034-45C2-4E34-A997-FF0248780F50}
3416 12:43:06 ERROR Missing renderer for item {299003F5-3E37-462E-B72D-1F2EA7BFA7F1}
3416 12:43:06 ERROR Missing renderer for item {E51D33D2-B5D4-428A-A0AB-348FD2383B4A}
3416 12:43:06 ERROR Missing renderer for item {157DA1DF-EFB8-4FDA-8F57-DF8DF1FC86DD}
3416 12:43:06 ERROR Rendering TextFrame: {9A43FE3B-8EB3-4C6C-B9AE-A5237A038828}
Exception: System.NullReferenceException
Message: Object reference not set to an instance of an object.
Source: TM.Web.Custom
   at TM.Web.Custom.Modules.PXM.Rendering.SalesTeamRendererPhoneByIndex.GetContent(PrintContext printContext, XElement textFrameNode) in d:\EX2\Projects\TaylorMorrison\TMWeb\TM.WIP\src\TM.Web.Custom\Modules\PXM\Rendering\SalesTeamRendererPhoneByIndex.cs:line 51

3416 12:43:06 ERROR Missing renderer for item {7E856796-A373-424B-AA96-F68343F4B460}
3416 12:43:06 ERROR Rendering TextFrame: {12BCE03E-20EB-4589-A0C3-C400D6E8D716}
Exception: System.NullReferenceException
Message: Object reference not set to an instance of an object.
Source: TM.Web.Custom
   at TM.Web.Custom.Modules.PXM.Rendering.SalesTeamRendererNameByIndex.GetContent(PrintContext printContext, XElement textFrameNode) in d:\EX2\Projects\TaylorMorrison\TMWeb\TM.WIP\src\TM.Web.Custom\Modules\PXM\Rendering\SalesTeamRendererNameByIndex.cs:line 49

3416 12:43:06 ERROR Missing renderer for item {618A4D93-8D69-49AF-9752-F31E877F2C13}
3416 12:43:06 ERROR Rendering TextFrame: {D476F802-7483-43DB-972F-08F25A3605BA}
Exception: System.NullReferenceException
Message: Object reference not set to an instance of an object.
Source: TM.Web.Custom
   at TM.Web.Custom.Modules.PXM.Rendering.SalesTeamRendererEmailByIndex.GetContent(PrintContext printContext, XElement textFrameNode) in d:\EX2\Projects\TaylorMorrison\TMWeb\TM.WIP\src\TM.Web.Custom\Modules\PXM\Rendering\SalesTeamRendererEmailByIndex.cs:line 47

3416 12:43:06 ERROR Missing renderer for item {01B7F07C-839F-4E89-80F3-CA5253BED826}
20064 12:45:00 ERROR Rendering TextFrame: {82090A3D-DDC2-4464-963F-C0C56CDD09B3}
Exception: System.NullReferenceException
Message: Object reference not set to an instance of an object.
Source: TM.Web.Custom
   at TM.Web.Custom.Modules.PXM.Rendering.SalesTeamRendererNameByIndex.GetContent(PrintContext printContext, XElement textFrameNode) in d:\EX2\Projects\TaylorMorrison\TMWeb\TM.WIP\src\TM.Web.Custom\Modules\PXM\Rendering\SalesTeamRendererNameByIndex.cs:line 45

20064 12:45:00 ERROR Rendering TextFrame: {BC8F5E1C-F165-48A7-BBEC-0A84F25AA980}
Exception: System.NullReferenceException
Message: Object reference not set to an instance of an object.
Source: TM.Web.Custom
   at TM.Web.Custom.Modules.PXM.Rendering.SalesTeamRendererPhoneByIndex.GetContent(PrintContext printContext, XElement textFrameNode) in d:\EX2\Projects\TaylorMorrison\TMWeb\TM.WIP\src\TM.Web.Custom\Modules\PXM\Rendering\SalesTeamRendererPhoneByIndex.cs:line 47

20064 12:45:00 ERROR Rendering TextFrame: {3BED9F84-913B-4727-8156-1B3685346093}
Exception: System.NullReferenceException
Message: Object reference not set to an instance of an object.
Source: TM.Web.Custom
   at TM.Web.Custom.Modules.PXM.Rendering.SalesTeamRendererEmailByIndex.GetContent(PrintContext printContext, XElement textFrameNode) in d:\EX2\Projects\TaylorMorrison\TMWeb\TM.WIP\src\TM.Web.Custom\Modules\PXM\Rendering\SalesTeamRendererEmailByIndex.cs:line 43

20064 12:45:00 ERROR Rendering TextFrame: {8C9BCDD1-BEE7-4CC0-907A-26230D1E1384}
Exception: System.NullReferenceException
Message: Object reference not set to an instance of an object.
Source: TM.Web.Custom
   at TM.Web.Custom.Modules.PXM.Rendering.SalesTeamRendererPhoneByIndex.GetContent(PrintContext printContext, XElement textFrameNode) in d:\EX2\Projects\TaylorMorrison\TMWeb\TM.WIP\src\TM.Web.Custom\Modules\PXM\Rendering\SalesTeamRendererPhoneByIndex.cs:line 51

20064 12:45:00 ERROR Rendering TextFrame: {74FD36E7-404F-4F3A-BDB5-529913CAE9AF}
Exception: System.NullReferenceException
Message: Object reference not set to an instance of an object.
Source: TM.Web.Custom
   at TM.Web.Custom.Modules.PXM.Rendering.SalesTeamRendererNameByIndex.GetContent(PrintContext printContext, XElement textFrameNode) in d:\EX2\Projects\TaylorMorrison\TMWeb\TM.WIP\src\TM.Web.Custom\Modules\PXM\Rendering\SalesTeamRendererNameByIndex.cs:line 49

20064 12:45:00 ERROR Rendering TextFrame: {8C1A21A6-B6D2-425A-AD88-60718CDD562A}
Exception: System.NullReferenceException
Message: Object reference not set to an instance of an object.
Source: TM.Web.Custom
   at TM.Web.Custom.Modules.PXM.Rendering.SalesTeamRendererEmailByIndex.GetContent(PrintContext printContext, XElement textFrameNode) in d:\EX2\Projects\TaylorMorrison\TMWeb\TM.WIP\src\TM.Web.Custom\Modules\PXM\Rendering\SalesTeamRendererEmailByIndex.cs:line 47

21840 12:46:13 ERROR Missing renderer for item {CD81CB3C-FD39-45DF-A4F6-92398BD7537A}
21840 12:46:13 ERROR Missing renderer for item {C7027225-CEDE-49EF-8912-1B1F65A4F7BB}
21840 12:46:13 ERROR Rendering TextFrame: {112609A7-8AAC-4EF2-980B-FAF342A974AF}
Exception: System.NullReferenceException
Message: Object reference not set to an instance of an object.
Source: TM.Web.Custom
   at TM.Web.Custom.Modules.PXM.Rendering.SalesTeamRendererNameByIndex.GetContent(PrintContext printContext, XElement textFrameNode) in d:\EX2\Projects\TaylorMorrison\TMWeb\TM.WIP\src\TM.Web.Custom\Modules\PXM\Rendering\SalesTeamRendererNameByIndex.cs:line 49

21840 12:46:13 ERROR Missing renderer for item {3C317484-8693-4F4A-BE8F-3981008CC1C6}
21840 12:46:13 ERROR Rendering TextFrame: {020CC5BD-D9E2-41A8-BFB9-B6468BE27FB0}
Exception: System.NullReferenceException
Message: Object reference not set to an instance of an object.
Source: TM.Web.Custom
   at TM.Web.Custom.Modules.PXM.Rendering.SalesTeamRendererPhoneByIndex.GetContent(PrintContext printContext, XElement textFrameNode) in d:\EX2\Projects\TaylorMorrison\TMWeb\TM.WIP\src\TM.Web.Custom\Modules\PXM\Rendering\SalesTeamRendererPhoneByIndex.cs:line 51

21840 12:46:13 ERROR Missing renderer for item {79439ABE-F9A6-4CE8-A7F1-3F620F3D1610}
21840 12:46:13 ERROR Rendering TextFrame: {969346B9-E025-48B0-B739-E851AD6E064C}
Exception: System.NullReferenceException
Message: Object reference not set to an instance of an object.
Source: TM.Web.Custom
   at TM.Web.Custom.Modules.PXM.Rendering.SalesTeamRendererTitleByIndex.GetContent(PrintContext printContext, XElement textFrameNode) in d:\EX2\Projects\TaylorMorrison\TMWeb\TM.WIP\src\TM.Web.Custom\Modules\PXM\Rendering\SalesTeamRendererTitleByIndex.cs:line 49

21840 12:46:13 ERROR Rendering TextFrame: {DFA69217-640F-4889-81A9-6617DA9A8D86}
Exception: System.NullReferenceException
Message: Object reference not set to an instance of an object.
Source: TM.Web.Custom
   at TM.Web.Custom.Modules.PXM.Rendering.SalesTeamRendererEmailByIndex.GetContent(PrintContext printContext, XElement textFrameNode) in d:\EX2\Projects\TaylorMorrison\TMWeb\TM.WIP\src\TM.Web.Custom\Modules\PXM\Rendering\SalesTeamRendererEmailByIndex.cs:line 47

7100 12:46:31 ERROR Missing renderer for item {FFFE72D5-8547-48B6-8FBA-CD5A9646E822}
7100 12:46:31 ERROR Missing renderer for item {41E9C071-0917-46CE-953A-14ACB8A8799C}
7100 12:46:31 ERROR Rendering TextFrame: {6D6F3FEB-3F03-4534-B47A-C142A70962D4}
Exception: System.NullReferenceException
Message: Object reference not set to an instance of an object.
Source: TM.Web.Custom
   at TM.Web.Custom.Modules.PXM.Rendering.SalesTeamRendererTitleByIndex.GetContent(PrintContext printContext, XElement textFrameNode) in d:\EX2\Projects\TaylorMorrison\TMWeb\TM.WIP\src\TM.Web.Custom\Modules\PXM\Rendering\SalesTeamRendererTitleByIndex.cs:line 49

7100 12:46:31 ERROR Rendering TextFrame: {F8C6B98F-4DEF-4770-9198-0D5CAA3C808B}
Exception: System.NullReferenceException
Message: Object reference not set to an instance of an object.
Source: TM.Web.Custom
   at TM.Web.Custom.Modules.PXM.Rendering.SalesTeamRendererEmailByIndex.GetContent(PrintContext printContext, XElement textFrameNode) in d:\EX2\Projects\TaylorMorrison\TMWeb\TM.WIP\src\TM.Web.Custom\Modules\PXM\Rendering\SalesTeamRendererEmailByIndex.cs:line 47

7100 12:46:31 ERROR Rendering TextFrame: {3C3EC2FD-ACD4-48D8-A4BB-3922C6189C4D}
Exception: System.NullReferenceException
Message: Object reference not set to an instance of an object.
Source: TM.Web.Custom
   at TM.Web.Custom.Modules.PXM.Rendering.SalesTeamRendererNameByIndex.GetContent(PrintContext printContext, XElement textFrameNode) in d:\EX2\Projects\TaylorMorrison\TMWeb\TM.WIP\src\TM.Web.Custom\Modules\PXM\Rendering\SalesTeamRendererNameByIndex.cs:line 49

7100 12:46:31 ERROR Missing renderer for item {D18F14CA-568C-4B49-902F-03B13E4B3CDD}
7100 12:46:31 ERROR Rendering TextFrame: {811CAED7-4306-4984-ACE8-1DCC3C864B83}
Exception: System.NullReferenceException
Message: Object reference not set to an instance of an object.
Source: TM.Web.Custom
   at TM.Web.Custom.Modules.PXM.Rendering.SalesTeamRendererPhoneByIndex.GetContent(PrintContext printContext, XElement textFrameNode) in d:\EX2\Projects\TaylorMorrison\TMWeb\TM.WIP\src\TM.Web.Custom\Modules\PXM\Rendering\SalesTeamRendererPhoneByIndex.cs:line 51

7100 12:46:31 ERROR Missing renderer for item {AC3B77B9-4E71-4777-AD75-165FAB2F83B5}
ManagedPoolThread #6 13:09:29 ERROR Cannot parse the time interval specified in the 'IntervalTokeep' option to the desired format 'hh:mm:ss' for the CleanupEventQueue agent. The value specified in the DaysToKeep option will be used instead â€“ the specified value is '1' days. The specified value in the IntervalToKeep option is ''.
ManagedPoolThread #11 13:09:29 ERROR Cannot parse the time interval specified in the 'IntervalTokeep' option to the desired format 'hh:mm:ss' for the CleanupEventQueue agent. The value specified in the DaysToKeep option will be used instead â€“ the specified value is '1' days. The specified value in the IntervalToKeep option is ''.
ManagedPoolThread #3 14:33:31 ERROR Failed to perform MaxMind lookup
ManagedPoolThread #3 14:33:31 ERROR Failed to perform GeoIp lookup for 127.0.0.1
Exception: Sitecore.Analytics.Lookups.CannotParseResponseException
Message: Unexpected format. Cannot parse the MaxMind response for IP address: 127.0.0.1

Source: Sitecore.Analytics
   at Sitecore.Analytics.Lookups.MaxMindProvider.GetInformationByIp(String ip)
   at Sitecore.Analytics.Lookups.GeoIpManager.GetDataFromLookupProvider(GeoIpHandle geoIpHandle)

20412 14:57:07 ERROR Rendering TextFrame: {B5132335-A411-4162-9CA1-E66BC8298DF7}
Exception: System.NullReferenceException
Message: Object reference not set to an instance of an object.
Source: TM.Web.Custom
   at TM.Web.Custom.Modules.PXM.Rendering.SalesTeamRendererNameByIndex.GetContent(PrintContext printContext, XElement textFrameNode) in d:\EX2\Projects\TaylorMorrison\TMWeb\TM.WIP\src\TM.Web.Custom\Modules\PXM\Rendering\SalesTeamRendererNameByIndex.cs:line 45

20412 14:57:07 ERROR Rendering TextFrame: {23E844BE-3CB0-48FA-80CF-7A006F7C3365}
Exception: System.NullReferenceException
Message: Object reference not set to an instance of an object.
Source: TM.Web.Custom
   at TM.Web.Custom.Modules.PXM.Rendering.SalesTeamRendererPhoneByIndex.GetContent(PrintContext printContext, XElement textFrameNode) in d:\EX2\Projects\TaylorMorrison\TMWeb\TM.WIP\src\TM.Web.Custom\Modules\PXM\Rendering\SalesTeamRendererPhoneByIndex.cs:line 47

20412 14:57:07 ERROR Rendering TextFrame: {260316AB-F414-4448-BE5E-BFA78C49C46F}
Exception: System.NullReferenceException
Message: Object reference not set to an instance of an object.
Source: TM.Web.Custom
   at TM.Web.Custom.Modules.PXM.Rendering.SalesTeamRendererEmailByIndex.GetContent(PrintContext printContext, XElement textFrameNode) in d:\EX2\Projects\TaylorMorrison\TMWeb\TM.WIP\src\TM.Web.Custom\Modules\PXM\Rendering\SalesTeamRendererEmailByIndex.cs:line 43

3416 15:03:09 ERROR Application error.
Exception: System.Data.SqlClient.SqlException
Message: A network-related or instance-specific error occurred while establishing a connection to SQL Server. The server was not found or was not accessible. Verify that the instance name is correct and that SQL Server is configured to allow remote connections. (provider: Named Pipes Provider, error: 40 - Could not open a connection to SQL Server)
Source: .Net SqlClient Data Provider
   at System.Data.SqlClient.SqlInternalConnectionTds..ctor(DbConnectionPoolIdentity identity, SqlConnectionString connectionOptions, SqlCredential credential, Object providerInfo, String newPassword, SecureString newSecurePassword, Boolean redirectedUserInstance, SqlConnectionString userConnectionOptions, SessionData reconnectSessionData, DbConnectionPool pool, String accessToken, Boolean applyTransientFaultHandling)
   at System.Data.SqlClient.SqlConnectionFactory.CreateConnection(DbConnectionOptions options, DbConnectionPoolKey poolKey, Object poolGroupProviderInfo, DbConnectionPool pool, DbConnection owningConnection, DbConnectionOptions userOptions)
   at System.Data.ProviderBase.DbConnectionFactory.CreatePooledConnection(DbConnectionPool pool, DbConnection owningObject, DbConnectionOptions options, DbConnectionPoolKey poolKey, DbConnectionOptions userOptions)
   at System.Data.ProviderBase.DbConnectionPool.CreateObject(DbConnection owningObject, DbConnectionOptions userOptions, DbConnectionInternal oldConnection)
   at System.Data.ProviderBase.DbConnectionPool.UserCreateRequest(DbConnection owningObject, DbConnectionOptions userOptions, DbConnectionInternal oldConnection)
   at System.Data.ProviderBase.DbConnectionPool.TryGetConnection(DbConnection owningObject, UInt32 waitForMultipleObjectsTimeout, Boolean allowCreate, Boolean onlyOneCheckConnection, DbConnectionOptions userOptions, DbConnectionInternal& connection)
   at System.Data.ProviderBase.DbConnectionPool.TryGetConnection(DbConnection owningObject, TaskCompletionSource`1 retry, DbConnectionOptions userOptions, DbConnectionInternal& connection)
   at System.Data.ProviderBase.DbConnectionFactory.TryGetConnection(DbConnection owningConnection, TaskCompletionSource`1 retry, DbConnectionOptions userOptions, DbConnectionInternal oldConnection, DbConnectionInternal& connection)
   at System.Data.ProviderBase.DbConnectionInternal.TryOpenConnectionInternal(DbConnection outerConnection, DbConnectionFactory connectionFactory, TaskCompletionSource`1 retry, DbConnectionOptions userOptions)
   at System.Data.SqlClient.SqlConnection.TryOpenInner(TaskCompletionSource`1 retry)
   at System.Data.SqlClient.SqlConnection.TryOpen(TaskCompletionSource`1 retry)
   at System.Data.SqlClient.SqlConnection.Open()
   at BHI.Session.WebSession.LoadSession(Guid sessionID) in d:\Projects\Ex2\BHI Common\.NET 4.0\1.0\Session\BHI.Session\WebSession.cs:line 969
   at BHI.Session.WebSession.Load(Guid sessionID) in d:\Projects\Ex2\BHI Common\.NET 4.0\1.0\Session\BHI.Session\WebSession.cs:line 512
   at BHI.Session.WebSession.CreateSessionFromCookie() in d:\Projects\Ex2\BHI Common\.NET 4.0\1.0\Session\BHI.Session\WebSession.cs:line 819
   at BHI.Session.WebSession..ctor(Boolean isSecure, Boolean autoLoad) in d:\Projects\Ex2\BHI Common\.NET 4.0\1.0\Session\BHI.Session\WebSession.cs:line 325
   at TM.Utils.Web.TMSession..ctor()
   at TM.Web.Custom.Pipelines.RequestProcessor.VirtualRequestProcessor.Process(HttpRequestArgs args) in d:\EX2\Projects\TaylorMorrison\TMWeb\TM.WIP\src\TM.Web.Custom\Pipelines\RequestProcessor\VirtualRequestProcessor.cs:line 76
   at (Object , Object[] )
   at Sitecore.Pipelines.CorePipeline.Run(PipelineArgs args)
   at Sitecore.Nexus.Web.HttpModule.(Object , EventArgs )
   at System.Web.HttpApplication.SyncEventExecutionStep.System.Web.HttpApplication.IExecutionStep.Execute()
   at System.Web.HttpApplication.ExecuteStep(IExecutionStep step, Boolean& completedSynchronously)

Nested Exception

Exception: System.ComponentModel.Win32Exception
Message: The network path was not found


3416 15:03:09 ERROR A network-related or instance-specific error occurred while establishing a connection to SQL Server. The server was not found or was not accessible. Verify that the instance name is correct and that SQL Server is configured to allow remote connections. (provider: Named Pipes Provider, error: 40 - Could not open a connection to SQL Server)
3416 15:03:09 ERROR The network path was not found
20064 15:06:07 ERROR Rendering TextFrame: {B5132335-A411-4162-9CA1-E66BC8298DF7}
Exception: System.NullReferenceException
Message: Object reference not set to an instance of an object.
Source: TM.Web.Custom
   at TM.Web.Custom.Modules.PXM.Rendering.SalesTeamRendererNameByIndex.GetContent(PrintContext printContext, XElement textFrameNode) in d:\EX2\Projects\TaylorMorrison\TMWeb\TM.WIP\src\TM.Web.Custom\Modules\PXM\Rendering\SalesTeamRendererNameByIndex.cs:line 45

20064 15:06:07 ERROR Rendering TextFrame: {23E844BE-3CB0-48FA-80CF-7A006F7C3365}
Exception: System.NullReferenceException
Message: Object reference not set to an instance of an object.
Source: TM.Web.Custom
   at TM.Web.Custom.Modules.PXM.Rendering.SalesTeamRendererPhoneByIndex.GetContent(PrintContext printContext, XElement textFrameNode) in d:\EX2\Projects\TaylorMorrison\TMWeb\TM.WIP\src\TM.Web.Custom\Modules\PXM\Rendering\SalesTeamRendererPhoneByIndex.cs:line 47

20064 15:06:07 ERROR Rendering TextFrame: {260316AB-F414-4448-BE5E-BFA78C49C46F}
Exception: System.NullReferenceException
Message: Object reference not set to an instance of an object.
Source: TM.Web.Custom
   at TM.Web.Custom.Modules.PXM.Rendering.SalesTeamRendererEmailByIndex.GetContent(PrintContext printContext, XElement textFrameNode) in d:\EX2\Projects\TaylorMorrison\TMWeb\TM.WIP\src\TM.Web.Custom\Modules\PXM\Rendering\SalesTeamRendererEmailByIndex.cs:line 43

ManagedPoolThread #16 15:33:33 ERROR Failed to perform MaxMind lookup
ManagedPoolThread #16 15:33:33 ERROR Failed to perform GeoIp lookup for 127.0.0.1
Exception: Sitecore.Analytics.Lookups.CannotParseResponseException
Message: Unexpected format. Cannot parse the MaxMind response for IP address: 127.0.0.1

Source: Sitecore.Analytics
   at Sitecore.Analytics.Lookups.MaxMindProvider.GetInformationByIp(String ip)
   at Sitecore.Analytics.Lookups.GeoIpManager.GetDataFromLookupProvider(GeoIpHandle geoIpHandle)

