﻿13036 11:00:23 ERROR Could not show version info for assembly: d:\ex2\projects\taylormorrison\tmweb\tm.wip\src\tm.web.ui\bin\msidcrl40.dll
Exception: System.BadImageFormatException
Message: Could not load file or assembly 'file:///d:\ex2\projects\taylormorrison\tmweb\tm.wip\src\tm.web.ui\bin\msidcrl40.dll' or one of its dependencies. The module was expected to contain an assembly manifest.
Source: mscorlib
   at System.Reflection.RuntimeAssembly._nLoad(AssemblyName fileName, String codeBase, Evidence assemblySecurity, RuntimeAssembly locationHint, StackCrawlMark& stackMark, IntPtr pPrivHostBinder, Boolean throwOnFileNotFound, Boolean forIntrospection, Boolean suppressSecurityChecks)
   at System.Reflection.RuntimeAssembly.InternalLoadAssemblyName(AssemblyName assemblyRef, Evidence assemblySecurity, RuntimeAssembly reqAssembly, StackCrawlMark& stackMark, IntPtr pPrivHostBinder, Boolean throwOnFileNotFound, Boolean forIntrospection, Boolean suppressSecurityChecks)
   at System.Reflection.RuntimeAssembly.InternalLoadFrom(String assemblyFile, Evidence securityEvidence, Byte[] hashValue, AssemblyHashAlgorithm hashAlgorithm, Boolean forIntrospection, Boolean suppressSecurityChecks, StackCrawlMark& stackMark)
   at System.Reflection.Assembly.LoadFrom(String assemblyFile)
   at Sitecore.Pipelines.Loader.ShowVersion.ShowVersionData(String filename)

ManagedPoolThread #4 11:06:46 ERROR Failed to perform MaxMind lookup
ManagedPoolThread #5 11:06:46 ERROR Failed to perform MaxMind lookup
ManagedPoolThread #5 11:06:46 ERROR Failed to perform GeoIp lookup for 127.0.0.1
Exception: Sitecore.Analytics.Lookups.CannotParseResponseException
Message: Unexpected format. Cannot parse the MaxMind response for IP address: 127.0.0.1

Source: Sitecore.Analytics
   at Sitecore.Analytics.Lookups.MaxMindProvider.GetInformationByIp(String ip)
   at Sitecore.Analytics.Lookups.GeoIpManager.GetDataFromLookupProvider(GeoIpHandle geoIpHandle)

ManagedPoolThread #4 11:06:46 ERROR Failed to perform GeoIp lookup for 127.0.0.1
Exception: Sitecore.Analytics.Lookups.CannotParseResponseException
Message: Unexpected format. Cannot parse the MaxMind response for IP address: 127.0.0.1

Source: Sitecore.Analytics
   at Sitecore.Analytics.Lookups.MaxMindProvider.GetInformationByIp(String ip)
   at Sitecore.Analytics.Lookups.GeoIpManager.GetDataFromLookupProvider(GeoIpHandle geoIpHandle)

