2640 10:04:00 INFO  Initializing URL Rewrite.
2640 10:04:00 INFO  UrlRewrite[core]::Adding 0 rules to Cache [core]
2640 10:04:07 INFO  UrlRewrite[master]::Adding 6 rules to Cache [master]
2640 10:04:10 INFO  UrlRewrite[web]::Adding 0 rules to Cache [web]
