1692 05:34:19 INFO  Initializing URL Rewrite.
1692 05:34:20 INFO  UrlRewrite[core]::Adding 0 rules to Cache [core]
1692 05:43:46 INFO  UrlRewrite[master]::Adding 6 rules to Cache [master]
1692 05:43:58 INFO  UrlRewrite[web]::Adding 0 rules to Cache [web]
