13664 11:30:30 INFO  Initializing URL Rewrite.
13664 11:30:30 INFO  UrlRewrite[core]::Adding 0 rules to Cache [core]
13664 11:41:33 INFO  UrlRewrite[master]::Adding 6 rules to Cache [master]
13664 11:42:00 INFO  UrlRewrite[web]::Adding 0 rules to Cache [web]
