3164 09:38:00 INFO  Initializing URL Rewrite.
3164 09:38:00 INFO  UrlRewrite[core]::Adding 0 rules to Cache [core]
3164 09:39:51 INFO  UrlRewrite[master]::Adding 6 rules to Cache [master]
3164 09:41:11 INFO  UrlRewrite[web]::Adding 0 rules to Cache [web]
