7836 14:33:52 INFO  Initializing URL Rewrite.
7836 14:33:52 INFO  UrlRewrite[core]::Adding 0 rules to Cache [core]
7836 14:51:38 INFO  UrlRewrite[master]::Adding 6 rules to Cache [master]
7836 14:52:23 INFO  UrlRewrite[web]::Adding 0 rules to Cache [web]
