15524 12:34:59 INFO  Initializing URL Rewrite.
15524 12:34:59 INFO  UrlRewrite[core]::Adding 0 rules to Cache [core]
15524 12:50:36 INFO  UrlRewrite[master]::Adding 6 rules to Cache [master]
15524 12:51:06 INFO  UrlRewrite[web]::Adding 0 rules to Cache [web]
