13968 09:16:30 INFO  Initializing URL Rewrite.
13968 09:16:30 INFO  UrlRewrite[core]::Adding 0 rules to Cache [core]
13968 09:16:38 INFO  UrlRewrite[master]::Adding 6 rules to Cache [master]
13968 09:16:39 INFO  UrlRewrite[web]::Adding 0 rules to Cache [web]
