12700 11:50:54 INFO  Initializing URL Rewrite.
12700 11:50:54 INFO  UrlRewrite[core]::Adding 0 rules to Cache [core]
12700 11:51:05 INFO  UrlRewrite[master]::Adding 6 rules to Cache [master]
12700 11:51:27 INFO  UrlRewrite[web]::Adding 0 rules to Cache [web]
